CRC/crc_dump.vcd
$date
	Tue Mar 05 19:25:15 2024
$end
$version
	ModelSim Version 10.1d
$end
$timescale
	1ps
$end
$scope module crc_tb $end
$var parameter 32 ! data_width $end
$var parameter 32 " crc_width $end
$var parameter 32 # test_cases $end
$var parameter 32 $ clk_period $end
$var reg 1 % data_tb $end
$var reg 1 & active_tb $end
$var reg 1 ' clk_tb $end
$var reg 1 ( rst_tb $end
$var wire 1 ) valid_tb $end
$var wire 1 * crc_tb $end
$var integer 32 + operation $end
$scope task initialize $end
$upscope $end
$scope task reset $end
$upscope $end
$scope task data_in $end
$var reg 8 , DATA [7:0] $end
$var integer 32 - i $end
$upscope $end
$scope task check_out $end
$var reg 8 . Expec_Out [7:0] $end
$var integer 32 / oper_num $end
$var reg 8 0 gener_out [7:0] $end
$var integer 32 1 i $end
$upscope $end
$scope module DUT $end
$var parameter 32 2 width $end
$var parameter 8 3 seed $end
$var parameter 7 4 taps $end
$var wire 1 5 data $end
$var wire 1 6 active $end
$var wire 1 7 clk $end
$var wire 1 8 rst $end
$var reg 1 9 crc $end
$var reg 1 : valid $end
$var reg 8 ; lfsr [7:0] $end
$var reg 5 < counter [4:0] $end
$var wire 1 = counter_max $end
$var wire 1 > feedback $end
$var integer 32 ? i $end
$upscope $end
$upscope $end
$enddefinitions $end
#0
$dumpvars
0%
0&
0'
1(
x9
x:
bx ;
bx <
bx ,
bx .
bx 0
b1000 !
b1000 "
b1010 #
b1100100 $
b1000 2
b11011000 3
b1000100 4
b0 +
bx ?
bx -
bx /
bx 1
x)
x*
x=
x>
18
07
06
05
$end
#50000
1'
17
#100000
0(
0'
08
07
b11011000 ;
09
0:
b1000 <
0>
0*
1=
0)
#150000
1'
17
#200000
1(
b10010011 ,
1&
b0 -
1%
0'
16
15
1>
18
07
#250000
1'
17
b0 ?
b1 ?
b10 ?
b11 ?
b100 ?
b101 ?
b110 ?
b111 ?
b11001000 ;
b11101000 ;
b10101000 ;
b0 <
0=
#300000
b1 -
0'
07
#350000
1'
17
b0 ?
b1 ?
b10 ?
b11 ?
b100 ?
b101 ?
b110 ?
b111 ?
b10100000 ;
b10110000 ;
b10010000 ;
#400000
b10 -
0%
0'
05
0>
07
#450000
1'
17
b0 ?
b1 ?
b10 ?
b11 ?
b100 ?
b101 ?
b110 ?
b111 ?
b10000 ;
b11000 ;
b1000 ;
b1001000 ;
#500000
b11 -
0'
07
#550000
1'
17
b0 ?
b1 ?
b10 ?
b11 ?
b100 ?
b101 ?
b110 ?
b111 ?
b1001100 ;
b1000100 ;
b1100100 ;
b100100 ;
#600000
b100 -
1%
0'
15
1>
07
#650000
1'
17
b0 ?
b1 ?
b10 ?
b11 ?
b100 ?
b101 ?
b110 ?
b111 ?
b10100100 ;
b10100110 ;
b10110110 ;
b10010110 ;
b11010110 ;
#700000
b101 -
0%
0'
05
0>
07
#750000
1'
17
b0 ?
b1 ?
b10 ?
b11 ?
b100 ?
b101 ?
b110 ?
b111 ?
b1010110 ;
b1010111 ;
b1010011 ;
b1011011 ;
b1001011 ;
b1101011 ;
1>
#800000
b110 -
0'
07
#850000
1'
17
b0 ?
b1 ?
b10 ?
b11 ?
b100 ?
b101 ?
b110 ?
b111 ?
b11101011 ;
b11101001 ;
b11100001 ;
b11110001 ;
#900000
b111 -
1%
0'
15
0>
07
#950000
1'
17
b0 ?
b1 ?
b10 ?
b11 ?
b100 ?
b101 ?
b110 ?
b111 ?
b1110001 ;
b1110000 ;
b1111000 ;
1>
#1000000
b1000 -
0&
b1111000 .
b0 /
0'
06
07
#1050000
1'
17
b111100 ;
1:
1)
b0 1
b1 <
#1100000
0'
07
#1150000
bx0 0
b1 1
1'
17
b11110 ;
b10 <
#1200000
0'
07
#1250000
bx00 0
b10 1
1'
17
b1111 ;
0>
b11 <
#1300000
0'
07
#1350000
bx000 0
b11 1
1'
17
19
b111 ;
1*
b100 <
#1400000
0'
07
#1450000
bx1000 0
b100 1
1'
17
b11 ;
b101 <
#1500000
0'
07
#1550000
bx11000 0
b101 1
1'
17
b1 ;
b110 <
#1600000
0'
07
#1650000
bx111000 0
b110 1
1'
17
b0 ;
1>
b111 <
#1700000
0'
07
#1750000
bx1111000 0
b111 1
1'
17
09
0*
b1000 <
1=
#1800000
0'
07
#1850000
b1111000 0
b1000 1
b1 +
1'
17
b1001 <
0=
#1900000
0'
07
#1950000
0(
1'
08
17
b11011000 ;
0:
b1000 <
1=
0)
#2000000
0'
07
#2050000
1(
b1110010 ,
1&
b0 -
0%
1'
16
05
0>
18
17
b0 ?
b1 ?
b10 ?
b11 ?
b100 ?
b101 ?
b110 ?
b111 ?
b1011000 ;
b1011100 ;
b1001100 ;
b1101100 ;
b0 <
0=
#2100000
0'
07
#2150000
b1 -
1%
1'
15
1>
17
b0 ?
b1 ?
b10 ?
b11 ?
b100 ?
b101 ?
b110 ?
b111 ?
b11101100 ;
b11101110 ;
b11101010 ;
b11100010 ;
b11110010 ;
#2200000
0'
07
#2250000
b10 -
0%
1'
05
0>
17
b0 ?
b1 ?
b10 ?
b11 ?
b100 ?
b101 ?
b110 ?
b111 ?
b1110010 ;
b1110011 ;
b1110001 ;
b1111001 ;
1>
#2300000
0'
07
#2350000
b11 -
1'
17
b0 ?
b1 ?
b10 ?
b11 ?
b100 ?
b101 ?
b110 ?
b111 ?
b11111001 ;
b11111000 ;
0>
#2400000
0'
07
#2450000
b100 -
1%
1'
15
1>
17
b0 ?
b1 ?
b10 ?
b11 ?
b100 ?
b101 ?
b110 ?
b111 ?
b10111000 ;
#2500000
0'
07
#2550000
b101 -
1'
17
b0 ?
b1 ?
b10 ?
b11 ?
b100 ?
b101 ?
b110 ?
b111 ?
b10011000 ;
#2600000
0'
07
#2650000
b110 -
1'
17
b0 ?
b1 ?
b10 ?
b11 ?
b100 ?
b101 ?
b110 ?
b111 ?
b10001000 ;
#2700000
0'
07
#2750000
b111 -
0%
1'
05
0>
17
b0 ?
b1 ?
b10 ?
b11 ?
b100 ?
b101 ?
b110 ?
b111 ?
b1000 ;
b1100 ;
b100 ;
b1000100 ;
#2800000
0'
07
#2850000
b1000 -
0&
b1000100 .
b1 /
1'
06
17
b100010 ;
1:
1)
b0 1
b1 <
#2900000
0'
07
#2950000
b1 1
1'
17
b10001 ;
1>
b10 <
#3000000
0'
07
#3050000
b10 1
1'
17
19
b1000 ;
1*
0>
b11 <
#3100000
0'
07
#3150000
b1111100 0
b11 1
1'
17
09
b100 ;
0*
b100 <
#3200000
0'
07
#3250000
b1110100 0
b100 1
1'
17
b10 ;
b101 <
#3300000
0'
07
#3350000
b1100100 0
b101 1
1'
17
b1 ;
1>
b110 <
#3400000
0'
07
#3450000
b1000100 0
b110 1
1'
17
19
b0 ;
1*
0>
b111 <
#3500000
0'
07
#3550000
b111 1
1'
17
09
0*
b1000 <
1=
#3600000
0'
07
#3650000
b1000 1
b10 +
1'
17
b1001 <
0=
#3700000
0'
07
#3750000
0(
1'
08
17
b11011000 ;
0:
b1000 <
1=
0)
#3800000
0'
07
#3850000
1(
b110110 ,
1&
b0 -
1'
16
18
17
b0 ?
b1 ?
b10 ?
b11 ?
b100 ?
b101 ?
b110 ?
b111 ?
b1011000 ;
b1011100 ;
b1001100 ;
b1101100 ;
b0 <
0=
#3900000
0'
07
#3950000
b1 -
1%
1'
15
1>
17
b0 ?
b1 ?
b10 ?
b11 ?
b100 ?
b101 ?
b110 ?
b111 ?
b11101100 ;
b11101110 ;
b11101010 ;
b11100010 ;
b11110010 ;
#4000000
0'
07
#4050000
b10 -
1'
17
b0 ?
b1 ?
b10 ?
b11 ?
b100 ?
b101 ?
b110 ?
b111 ?
b11110011 ;
b11110001 ;
b11110101 ;
b11111101 ;
b10111101 ;
0>
#4100000
0'
07
#4150000
b11 -
0%
1'
05
1>
17
b0 ?
b1 ?
b10 ?
b11 ?
b100 ?
b101 ?
b110 ?
b111 ?
b10111100 ;
b10111110 ;
b10111010 ;
b10011010 ;
0>
#4200000
0'
07
#4250000
b100 -
1%
1'
15
1>
17
b0 ?
b1 ?
b10 ?
b11 ?
b100 ?
b101 ?
b110 ?
b111 ?
b10011011 ;
b10011001 ;
b10001001 ;
0>
#4300000
0'
07
#4350000
b101 -
1'
17
b0 ?
b1 ?
b10 ?
b11 ?
b100 ?
b101 ?
b110 ?
b111 ?
b1001 ;
b1000 ;
b1100 ;
b100 ;
b1000100 ;
1>
#4400000
0'
07
#4450000
b110 -
0%
1'
05
0>
17
b0 ?
b1 ?
b10 ?
b11 ?
b100 ?
b101 ?
b110 ?
b111 ?
b1000110 ;
b1000010 ;
b1100010 ;
b100010 ;
#4500000
0'
07
#4550000
b111 -
1'
17
b0 ?
b1 ?
b10 ?
b11 ?
b100 ?
b101 ?
b110 ?
b111 ?
b100011 ;
b100001 ;
b110001 ;
b10001 ;
1>
#4600000
0'
07
#4650000
b1000 -
0&
b10001 .
b10 /
1'
06
17
19
b1000 ;
1:
1*
0>
1)
b0 1
b1 <
#4700000
0'
07
#4750000
b1000101 0
b1 1
1'
17
09
b100 ;
0*
b10 <
#4800000
0'
07
#4850000
b10 1
1'
17
b10 ;
b11 <
#4900000
0'
07
#4950000
b1000001 0
b11 1
1'
17
b1 ;
1>
b100 <
#5000000
0'
07
#5050000
b100 1
1'
17
19
b0 ;
1*
0>
b101 <
#5100000
0'
07
#5150000
b1010001 0
b101 1
1'
17
09
0*
b110 <
#5200000
0'
07
#5250000
b110 1
1'
17
b111 <
#5300000
0'
07
#5350000
b10001 0
b111 1
1'
17
b1000 <
1=
#5400000
0'
07
#5450000
b1000 1
b11 +
1'
17
b1001 <
0=
#5500000
0'
07
#5550000
0(
1'
08
17
b11011000 ;
0:
b1000 <
1=
0)
#5600000
0'
07
#5650000
1(
b11011 ,
1&
b0 -
1%
1'
16
15
1>
18
17
b0 ?
b1 ?
b10 ?
b11 ?
b100 ?
b101 ?
b110 ?
b111 ?
b11001000 ;
b11101000 ;
b10101000 ;
b0 <
0=
#5700000
0'
07
#5750000
b1 -
1'
17
b0 ?
b1 ?
b10 ?
b11 ?
b100 ?
b101 ?
b110 ?
b111 ?
b10100000 ;
b10110000 ;
b10010000 ;
#5800000
0'
07
#5850000
b10 -
0%
1'
05
0>
17
b0 ?
b1 ?
b10 ?
b11 ?
b100 ?
b101 ?
b110 ?
b111 ?
b10000 ;
b11000 ;
b1000 ;
b1001000 ;
#5900000
0'
07
#5950000
b11 -
1%
1'
15
1>
17
b0 ?
b1 ?
b10 ?
b11 ?
b100 ?
b101 ?
b110 ?
b111 ?
b11001000 ;
b11000000 ;
b11100000 ;
#6000000
0'
07
#6050000
b100 -
1'
17
b0 ?
b1 ?
b10 ?
b11 ?
b100 ?
b101 ?
b110 ?
b111 ?
b11100100 ;
b11110100 ;
b10110100 ;
#6100000
0'
07
#6150000
b101 -
0%
1'
05
0>
17
b0 ?
b1 ?
b10 ?
b11 ?
b100 ?
b101 ?
b110 ?
b111 ?
b110100 ;
b110110 ;
b110010 ;
b111010 ;
b11010 ;
b1011010 ;
#6200000
0'
07
#6250000
b110 -
1'
17
b0 ?
b1 ?
b10 ?
b11 ?
b100 ?
b101 ?
b110 ?
b111 ?
b1011011 ;
b1011001 ;
b1011101 ;
b1001101 ;
b1101101 ;
b101101 ;
1>
#6300000
0'
07
#6350000
b111 -
1'
17
b0 ?
b1 ?
b10 ?
b11 ?
b100 ?
b101 ?
b110 ?
b111 ?
b10101101 ;
b10101100 ;
b10101110 ;
b10101010 ;
b10100010 ;
b10110010 ;
b10010010 ;
b11010010 ;
0>
#6400000
0'
07
#6450000
b1000 -
0&
b11010010 .
b11 /
1'
06
17
b1101001 ;
1:
1>
1)
b0 1
b1 <
#6500000
0'
07
#6550000
b10000 0
b1 1
1'
17
19
b110100 ;
1*
0>
b10 <
#6600000
0'
07
#6650000
b10010 0
b10 1
1'
17
09
b11010 ;
0*
b11 <
#6700000
0'
07
#6750000
b11 1
1'
17
b1101 ;
1>
b100 <
#6800000
0'
07
#6850000
b100 1
1'
17
19
b110 ;
1*
0>
b101 <
#6900000
0'
07
#6950000
b101 1
1'
17
09
b11 ;
0*
1>
b110 <
#7000000
0'
07
#7050000
b110 1
1'
17
19
b1 ;
1*
b111 <
#7100000
0'
07
#7150000
b1010010 0
b111 1
1'
17
b0 ;
0>
b1000 <
1=
#7200000
0'
07
#7250000
b11010010 0
b1000 1
b100 +
1'
17
b1001 <
0=
#7300000
0'
07
#7350000
0(
1'
08
17
b11011000 ;
09
0:
b1000 <
0*
1=
0)
#7400000
0'
07
#7450000
1(
b10100110 ,
1&
b0 -
1'
16
18
17
b0 ?
b1 ?
b10 ?
b11 ?
b100 ?
b101 ?
b110 ?
b111 ?
b1011000 ;
b1011100 ;
b1001100 ;
b1101100 ;
b0 <
0=
#7500000
0'
07
#7550000
b1 -
1%
1'
15
1>
17
b0 ?
b1 ?
b10 ?
b11 ?
b100 ?
b101 ?
b110 ?
b111 ?
b11101100 ;
b11101110 ;
b11101010 ;
b11100010 ;
b11110010 ;
#7600000
0'
07
#7650000
b10 -
1'
17
b0 ?
b1 ?
b10 ?
b11 ?
b100 ?
b101 ?
b110 ?
b111 ?
b11110011 ;
b11110001 ;
b11110101 ;
b11111101 ;
b10111101 ;
0>
#7700000
0'
07
#7750000
b11 -
0%
1'
05
1>
17
b0 ?
b1 ?
b10 ?
b11 ?
b100 ?
b101 ?
b110 ?
b111 ?
b10111100 ;
b10111110 ;
b10111010 ;
b10011010 ;
0>
#7800000
0'
07
#7850000
b100 -
1'
17
b0 ?
b1 ?
b10 ?
b11 ?
b100 ?
b101 ?
b110 ?
b111 ?
b11010 ;
b11011 ;
b11001 ;
b11101 ;
b1101 ;
b1001101 ;
1>
#7900000
0'
07
#7950000
b101 -
1%
1'
15
0>
17
b0 ?
b1 ?
b10 ?
b11 ?
b100 ?
b101 ?
b110 ?
b111 ?
b1001100 ;
b1001110 ;
b1000110 ;
b1100110 ;
b100110 ;
1>
#8000000
0'
07
#8050000
b110 -
0%
1'
05
0>
17
b0 ?
b1 ?
b10 ?
b11 ?
b100 ?
b101 ?
b110 ?
b111 ?
b100111 ;
b100011 ;
b110011 ;
b10011 ;
1>
#8100000
0'
07
#8150000
b111 -
1%
1'
15
0>
17
b0 ?
b1 ?
b10 ?
b11 ?
b100 ?
b101 ?
b110 ?
b111 ?
b10001 ;
b11001 ;
b1001 ;
#8200000
0'
07
#8250000
b1000 -
0&
b1001 .
b100 /
1'
06
17
19
b100 ;
1:
1*
1>
1)
b0 1
b1 <
#8300000
0'
07
#8350000
b11010011 0
b1 1
1'
17
09
b10 ;
0*
b10 <
#8400000
0'
07
#8450000
b11010001 0
b10 1
1'
17
b1 ;
0>
b11 <
#8500000
0'
07
#8550000
b11 1
1'
17
19
b0 ;
1*
1>
b100 <
#8600000
0'
07
#8650000
b11011001 0
b100 1
1'
17
09
0*
b101 <
#8700000
0'
07
#8750000
b11001001 0
b101 1
1'
17
b110 <
#8800000
0'
07
#8850000
b110 1
1'
17
b111 <
#8900000
0'
07
#8950000
b10001001 0
b111 1
1'
17
b1000 <
1=
#9000000
0'
07
#9050000
b1001 0
b1000 1
b101 +
1'
17
b1001 <
0=
#9100000
0'
07
#9150000
0(
1'
08
17
b11011000 ;
0:
b1000 <
1=
0)
#9200000
0'
07
#9250000
1(
b11000000 ,
1&
b0 -
0%
1'
16
05
0>
18
17
b0 ?
b1 ?
b10 ?
b11 ?
b100 ?
b101 ?
b110 ?
b111 ?
b1011000 ;
b1011100 ;
b1001100 ;
b1101100 ;
b0 <
0=
#9300000
0'
07
#9350000
b1 -
1'
17
b0 ?
b1 ?
b10 ?
b11 ?
b100 ?
b101 ?
b110 ?
b111 ?
b1101110 ;
b1100110 ;
b1110110 ;
b110110 ;
#9400000
0'
07
#9450000
b10 -
1'
17
b0 ?
b1 ?
b10 ?
b11 ?
b100 ?
b101 ?
b110 ?
b111 ?
b110111 ;
b110011 ;
b111011 ;
b11011 ;
1>
#9500000
0'
07
#9550000
b11 -
1'
17
b0 ?
b1 ?
b10 ?
b11 ?
b100 ?
b101 ?
b110 ?
b111 ?
b10011011 ;
b10011001 ;
b10001001 ;
b11001001 ;
#9600000
0'
07
#9650000
b100 -
1'
17
b0 ?
b1 ?
b10 ?
b11 ?
b100 ?
b101 ?
b110 ?
b111 ?
b11001000 ;
b11000000 ;
b11100000 ;
b10100000 ;
0>
#9700000
0'
07
#9750000
b101 -
1'
17
b0 ?
b1 ?
b10 ?
b11 ?
b100 ?
b101 ?
b110 ?
b111 ?
b100000 ;
b110000 ;
b10000 ;
b1010000 ;
#9800000
0'
07
#9850000
b110 -
1%
1'
15
1>
17
b0 ?
b1 ?
b10 ?
b11 ?
b100 ?
b101 ?
b110 ?
b111 ?
b11010000 ;
b11010100 ;
b11011100 ;
b11001100 ;
b11101100 ;
#9900000
0'
07
#9950000
b111 -
1'
17
b0 ?
b1 ?
b10 ?
b11 ?
b100 ?
b101 ?
b110 ?
b111 ?
b11101110 ;
b11101010 ;
b11100010 ;
b11110010 ;
b10110010 ;
#10000000
0'
07
#10050000
b1000 -
0&
b10110010 .
b101 /
1'
06
17
b1011001 ;
1:
0>
1)
b0 1
b1 <
#10100000
0'
07
#10150000
b1000 0
b1 1
1'
17
19
b101100 ;
1*
1>
b10 <
#10200000
0'
07
#10250000
b1010 0
b10 1
1'
17
09
b10110 ;
0*
b11 <
#10300000
0'
07
#10350000
b11 1
1'
17
b1011 ;
0>
b100 <
#10400000
0'
07
#10450000
b10 0
b100 1
1'
17
19
b101 ;
1*
b101 <
#10500000
0'
07
#10550000
b10010 0
b101 1
1'
17
b10 ;
1>
b110 <
#10600000
0'
07
#10650000
b110010 0
b110 1
1'
17
09
b1 ;
0*
0>
b111 <
#10700000
0'
07
#10750000
b111 1
1'
17
19
b0 ;
1*
1>
b1000 <
1=
#10800000
0'
07
#10850000
b10110010 0
b1000 1
b110 +
1'
17
b1001 <
0=
#10900000
0'
07
#10950000
0(
1'
08
17
b11011000 ;
09
0:
b1000 <
0*
1=
0)
#11000000
0'
07
#11050000
1(
b1010101 ,
1&
b0 -
1'
16
18
17
b0 ?
b1 ?
b10 ?
b11 ?
b100 ?
b101 ?
b110 ?
b111 ?
b11001000 ;
b11101000 ;
b10101000 ;
b0 <
0=
#11100000
0'
07
#11150000
b1 -
0%
1'
05
0>
17
b0 ?
b1 ?
b10 ?
b11 ?
b100 ?
b101 ?
b110 ?
b111 ?
b101000 ;
b101100 ;
b100100 ;
b110100 ;
b10100 ;
b1010100 ;
#11200000
0'
07
#11250000
b10 -
1%
1'
15
1>
17
b0 ?
b1 ?
b10 ?
b11 ?
b100 ?
b101 ?
b110 ?
b111 ?
b11010100 ;
b11010110 ;
b11011110 ;
b11001110 ;
b11101110 ;
#11300000
0'
07
#11350000
b11 -
0%
1'
05
0>
17
b0 ?
b1 ?
b10 ?
b11 ?
b100 ?
b101 ?
b110 ?
b111 ?
b1101110 ;
b1101111 ;
b1100111 ;
b1110111 ;
1>
#11400000
0'
07
#11450000
b100 -
1%
1'
15
0>
17
b0 ?
b1 ?
b10 ?
b11 ?
b100 ?
b101 ?
b110 ?
b111 ?
b1110011 ;
b1111011 ;
b111011 ;
#11500000
0'
07
#11550000
b101 -
0%
1'
05
1>
17
b0 ?
b1 ?
b10 ?
b11 ?
b100 ?
b101 ?
b110 ?
b111 ?
b10111011 ;
b10111001 ;
b10011001 ;
b11011001 ;
#11600000
0'
07
#11650000
b110 -
1%
1'
15
0>
17
b0 ?
b1 ?
b10 ?
b11 ?
b100 ?
b101 ?
b110 ?
b111 ?
b1011001 ;
b1011000 ;
b1011100 ;
b1001100 ;
b1101100 ;
1>
#11700000
0'
07
#11750000
b111 -
0%
1'
05
0>
17
b0 ?
b1 ?
b10 ?
b11 ?
b100 ?
b101 ?
b110 ?
b111 ?
b1101110 ;
b1100110 ;
b1110110 ;
b110110 ;
#11800000
0'
07
#11850000
b1000 -
0&
b110110 .
b110 /
1'
06
17
b11011 ;
1:
1>
1)
b0 1
b1 <
#11900000
0'
07
#11950000
b1 1
1'
17
19
b1101 ;
1*
b10 <
#12000000
0'
07
#12050000
b10 1
1'
17
b110 ;
0>
b11 <
#12100000
0'
07
#12150000
b10110110 0
b11 1
1'
17
09
b11 ;
0*
1>
b100 <
#12200000
0'
07
#12250000
b100 1
1'
17
19
b1 ;
1*
b101 <
#12300000
0'
07
#12350000
b101 1
1'
17
b0 ;
0>
b110 <
#12400000
0'
07
#12450000
b110 1
1'
17
09
0*
b111 <
#12500000
0'
07
#12550000
b111 1
1'
17
b1000 <
1=
#12600000
0'
07
#12650000
b110110 0
b1000 1
b111 +
1'
17
b1001 <
0=
#12700000
0'
07
#12750000
0(
1'
08
17
b11011000 ;
0:
b1000 <
1=
0)
#12800000
0'
07
#12850000
1(
b11110010 ,
1&
b0 -
1'
16
18
17
b0 ?
b1 ?
b10 ?
b11 ?
b100 ?
b101 ?
b110 ?
b111 ?
b1011000 ;
b1011100 ;
b1001100 ;
b1101100 ;
b0 <
0=
#12900000
0'
07
#12950000
b1 -
1%
1'
15
1>
17
b0 ?
b1 ?
b10 ?
b11 ?
b100 ?
b101 ?
b110 ?
b111 ?
b11101100 ;
b11101110 ;
b11101010 ;
b11100010 ;
b11110010 ;
#13000000
0'
07
#13050000
b10 -
0%
1'
05
0>
17
b0 ?
b1 ?
b10 ?
b11 ?
b100 ?
b101 ?
b110 ?
b111 ?
b1110010 ;
b1110011 ;
b1110001 ;
b1111001 ;
1>
#13100000
0'
07
#13150000
b11 -
1'
17
b0 ?
b1 ?
b10 ?
b11 ?
b100 ?
b101 ?
b110 ?
b111 ?
b11111001 ;
b11111000 ;
0>
#13200000
0'
07
#13250000
b100 -
1%
1'
15
1>
17
b0 ?
b1 ?
b10 ?
b11 ?
b100 ?
b101 ?
b110 ?
b111 ?
b10111000 ;
#13300000
0'
07
#13350000
b101 -
1'
17
b0 ?
b1 ?
b10 ?
b11 ?
b100 ?
b101 ?
b110 ?
b111 ?
b10011000 ;
#13400000
0'
07
#13450000
b110 -
1'
17
b0 ?
b1 ?
b10 ?
b11 ?
b100 ?
b101 ?
b110 ?
b111 ?
b10001000 ;
#13500000
0'
07
#13550000
b111 -
1'
17
b0 ?
b1 ?
b10 ?
b11 ?
b100 ?
b101 ?
b110 ?
b111 ?
b10000000 ;
#13600000
0'
07
#13650000
b1000 -
0&
b10000000 .
b111 /
1'
06
17
b1000000 ;
1:
1)
b0 1
b1 <
#13700000
0'
07
#13750000
b1 1
1'
17
b100000 ;
b10 <
#13800000
0'
07
#13850000
b110100 0
b10 1
1'
17
b10000 ;
b11 <
#13900000
0'
07
#13950000
b110000 0
b11 1
1'
17
b1000 ;
b100 <
#14000000
0'
07
#14050000
b100 1
1'
17
b100 ;
b101 <
#14100000
0'
07
#14150000
b100000 0
b101 1
1'
17
b10 ;
b110 <
#14200000
0'
07
#14250000
b0 0
b110 1
1'
17
b1 ;
0>
b111 <
#14300000
0'
07
#14350000
b111 1
1'
17
19
b0 ;
1*
1>
b1000 <
1=
#14400000
0'
07
#14450000
b10000000 0
b1000 1
b1000 +
1'
17
b1001 <
0=
#14500000
0'
07
#14550000
0(
1'
08
17
b11011000 ;
09
0:
b1000 <
0*
1=
0)
#14600000
0'
07
#14650000
1(
b1011110 ,
1&
b0 -
0%
1'
16
05
0>
18
17
b0 ?
b1 ?
b10 ?
b11 ?
b100 ?
b101 ?
b110 ?
b111 ?
b1011000 ;
b1011100 ;
b1001100 ;
b1101100 ;
b0 <
0=
#14700000
0'
07
#14750000
b1 -
1%
1'
15
1>
17
b0 ?
b1 ?
b10 ?
b11 ?
b100 ?
b101 ?
b110 ?
b111 ?
b11101100 ;
b11101110 ;
b11101010 ;
b11100010 ;
b11110010 ;
#14800000
0'
07
#14850000
b10 -
1'
17
b0 ?
b1 ?
b10 ?
b11 ?
b100 ?
b101 ?
b110 ?
b111 ?
b11110011 ;
b11110001 ;
b11110101 ;
b11111101 ;
b10111101 ;
0>
#14900000
0'
07
#14950000
b11 -
1'
17
b0 ?
b1 ?
b10 ?
b11 ?
b100 ?
b101 ?
b110 ?
b111 ?
b111101 ;
b111100 ;
b111110 ;
b11110 ;
b1011110 ;
1>
#15000000
0'
07
#15050000
b100 -
1'
17
b0 ?
b1 ?
b10 ?
b11 ?
b100 ?
b101 ?
b110 ?
b111 ?
b11011110 ;
b11011111 ;
b11011011 ;
b11001011 ;
b11101011 ;
0>
#15100000
0'
07
#15150000
b101 -
0%
1'
05
1>
17
b0 ?
b1 ?
b10 ?
b11 ?
b100 ?
b101 ?
b110 ?
b111 ?
b11101001 ;
b11100001 ;
b11110001 ;
b10110001 ;
#15200000
0'
07
#15250000
b110 -
1%
1'
15
0>
17
b0 ?
b1 ?
b10 ?
b11 ?
b100 ?
b101 ?
b110 ?
b111 ?
b110001 ;
b110000 ;
b111000 ;
b11000 ;
b1011000 ;
1>
#15300000
0'
07
#15350000
b111 -
0%
1'
05
0>
17
b0 ?
b1 ?
b10 ?
b11 ?
b100 ?
b101 ?
b110 ?
b111 ?
b1011100 ;
b1001100 ;
b1101100 ;
b101100 ;
#15400000
0'
07
#15450000
b1000 -
0&
b101100 .
b1000 /
1'
06
17
b10110 ;
1:
1)
b0 1
b1 <
#15500000
0'
07
#15550000
b1 1
1'
17
b1011 ;
1>
b10 <
#15600000
0'
07
#15650000
b10 1
1'
17
19
b101 ;
1*
b11 <
#15700000
0'
07
#15750000
b10000100 0
b11 1
1'
17
b10 ;
0>
b100 <
#15800000
0'
07
#15850000
b10001100 0
b100 1
1'
17
09
b1 ;
0*
1>
b101 <
#15900000
0'
07
#15950000
b101 1
1'
17
19
b0 ;
1*
0>
b110 <
#16000000
0'
07
#16050000
b10101100 0
b110 1
1'
17
09
0*
b111 <
#16100000
0'
07
#16150000
b111 1
1'
17
b1000 <
1=
#16200000
0'
07
#16250000
b101100 0
b1000 1
b1001 +
1'
17
b1001 <
0=
#16300000
0'
07
#16350000
0(
1'
08
17
b11011000 ;
0:
b1000 <
1=
0)
#16400000
0'
07
#16450000
1(
b10001 ,
1&
b0 -
1%
1'
16
15
1>
18
17
b0 ?
b1 ?
b10 ?
b11 ?
b100 ?
b101 ?
b110 ?
b111 ?
b11001000 ;
b11101000 ;
b10101000 ;
b0 <
0=
#16500000
0'
07
#16550000
b1 -
0%
1'
05
0>
17
b0 ?
b1 ?
b10 ?
b11 ?
b100 ?
b101 ?
b110 ?
b111 ?
b101000 ;
b101100 ;
b100100 ;
b110100 ;
b10100 ;
b1010100 ;
#16600000
0'
07
#16650000
b10 -
1'
17
b0 ?
b1 ?
b10 ?
b11 ?
b100 ?
b101 ?
b110 ?
b111 ?
b1010110 ;
b1010010 ;
b1011010 ;
b1001010 ;
b1101010 ;
b101010 ;
#16700000
0'
07
#16750000
b11 -
1'
17
b0 ?
b1 ?
b10 ?
b11 ?
b100 ?
b101 ?
b110 ?
b111 ?
b101011 ;
b101001 ;
b101101 ;
b100101 ;
b110101 ;
b10101 ;
1>
#16800000
0'
07
#16850000
b100 -
1%
1'
15
0>
17
b0 ?
b1 ?
b10 ?
b11 ?
b100 ?
b101 ?
b110 ?
b111 ?
b10100 ;
b10110 ;
b10010 ;
b11010 ;
b1010 ;
1>
#16900000
0'
07
#16950000
b101 -
0%
1'
05
0>
17
b0 ?
b1 ?
b10 ?
b11 ?
b100 ?
b101 ?
b110 ?
b111 ?
b1011 ;
b1001 ;
b1101 ;
b101 ;
1>
#17000000
0'
07
#17050000
b110 -
1'
17
b0 ?
b1 ?
b10 ?
b11 ?
b100 ?
b101 ?
b110 ?
b111 ?
b10000101 ;
b10000100 ;
b10000110 ;
b11000110 ;
0>
#17100000
0'
07
#17150000
b111 -
1'
17
b0 ?
b1 ?
b10 ?
b11 ?
b100 ?
b101 ?
b110 ?
b111 ?
b1000110 ;
b1000111 ;
b1000011 ;
b1100011 ;
1>
#17200000
0'
07
#17250000
b1000 -
0&
b1100011 .
b1001 /
1'
06
17
19
b110001 ;
1:
1*
1)
b0 1
b1 <
#17300000
0'
07
#17350000
b101101 0
b1 1
1'
17
b11000 ;
0>
b10 <
#17400000
0'
07
#17450000
b101111 0
b10 1
1'
17
09
b1100 ;
0*
b11 <
#17500000
0'
07
#17550000
b101011 0
b11 1
1'
17
b110 ;
b100 <
#17600000
0'
07
#17650000
b100011 0
b100 1
1'
17
b11 ;
1>
b101 <
#17700000
0'
07
#17750000
b101 1
1'
17
19
b1 ;
1*
b110 <
#17800000
0'
07
#17850000
b110 1
1'
17
b0 ;
0>
b111 <
#17900000
0'
07
#17950000
b1100011 0
b111 1
1'
17
09
0*
b1000 <
1=
#18000000
0'
07
#18050000
b1000 1
b1010 +
1'
17
b1001 <
0=
